module gitlab.com/ottersoft/otterauth

go 1.14

require (
	github.com/kr/text v0.2.0 // indirect
	github.com/niemeyer/pretty v0.0.0-20200227124842-a10e7caefd8e // indirect
	gitlab.com/ottersoft/goapi v0.2.1
	gopkg.in/check.v1 v1.0.0-20200227125254-8fa46927fb4f // indirect
)
